PM10,elevation,NO_2,date,BEN,CO,EBE,NMHC,NO,O_3,PM25,SO_2,TCH,TOL,station,name,address,lon,lat,suspicious,day,hour
12,670,30,2016-06-01T04:00:00Z,0.20000000298023224,0.20000000298023224,0.10000000149011612,0.10999999940395355,3,66,10,16,1.4500000476837158,1.2000000476837158,28079008,Escuelas Aguirre,Entre C/ Alcalá y C/ O’ Donell,-3.682319444444445,40.42156388888888,FALSE,1,4
10,670,20,2016-06-01T05:00:00Z,0.20000000298023224,0.20000000298023224,0.10000000149011612,0.10000000149011612,2,74,8,16,1.4299999475479126,1,28079008,Escuelas Aguirre,Entre C/ Alcalá y C/ O’ Donell,-3.682319444444445,40.42156388888888,FALSE,1,5
6,670,27,2016-06-01T06:00:00Z,0.20000000298023224,0.20000000298023224,0.10000000149011612,0.10999999940395355,2,64,4,16,1.440000057220459,1.2999999523162842,28079008,Escuelas Aguirre,Entre C/ Alcalá y C/ O’ Donell,-3.682319444444445,40.42156388888888,FALSE,1,6
11,670,38,2016-06-01T07:00:00Z,0.20000000298023224,0.20000000298023224,0.10000000149011612,0.10000000149011612,5,57,9,16,1.4299999475479126,2,28079008,Escuelas Aguirre,Entre C/ Alcalá y C/ O’ Donell,-3.682319444444445,40.42156388888888,FALSE,1,7
17,670,69,2016-06-01T08:00:00Z,0.4000000059604645,0.30000001192092896,0.20000000298023224,0.11999999731779099,14,36,12,17,1.4500000476837158,2.9000000953674316,28079008,Escuelas Aguirre,Entre C/ Alcalá y C/ O’ Donell,-3.682319444444445,40.42156388888888,FALSE,1,8
17,670,83,2016-06-01T09:00:00Z,0.699999988079071,0.4000000059604645,0.30000001192092896,0.15000000596046448,34,29,11,17,1.4800000190734863,2.700000047683716,28079008,Escuelas Aguirre,Entre C/ Alcalá y C/ O’ Donell,-3.682319444444445,40.42156388888888,FALSE,1,9
23,670,84,2016-06-01T10:00:00Z,1,0.5,0.5,0.15000000596046448,41,33,14,18,1.4900000095367432,3.5,28079008,Escuelas Aguirre,Entre C/ Alcalá y C/ O’ Donell,-3.682319444444445,40.42156388888888,FALSE,1,10
16,670,69,2016-06-01T11:00:00Z,0.800000011920929,0.4000000059604645,0.4000000059604645,0.14000000059604645,28,50,6,18,1.4700000286102295,3.299999952316284,28079008,Escuelas Aguirre,Entre C/ Alcalá y C/ O’ Donell,-3.682319444444445,40.42156388888888,FALSE,1,11
19,670,71,2016-06-01T12:00:00Z,0.6000000238418579,0.4000000059604645,0.4000000059604645,0.15000000596046448,27,54,12,17,1.4700000286102295,3.299999952316284,28079008,Escuelas Aguirre,Entre C/ Alcalá y C/ O’ Donell,-3.682319444444445,40.42156388888888,FALSE,1,12
21,670,78,2016-06-01T13:00:00Z,0.699999988079071,0.4000000059604645,0.4000000059604645,0.1599999964237213,35,53,11,18,1.4800000190734863,3.9000000953674316,28079008,Escuelas Aguirre,Entre C/ Alcalá y C/ O’ Donell,-3.682319444444445,40.42156388888888,FALSE,1,13
24,670,68,2016-06-01T14:00:00Z,0.800000011920929,0.4000000059604645,0.5,0.15000000596046448,28,65,13,17,1.4600000381469727,4,28079008,Escuelas Aguirre,Entre C/ Alcalá y C/ O’ Donell,-3.682319444444445,40.42156388888888,FALSE,1,14
19,670,48,2016-06-01T15:00:00Z,0.699999988079071,0.4000000059604645,0.4000000059604645,0.12999999523162842,14,83,9,17,1.4299999475479126,2.799999952316284,28079008,Escuelas Aguirre,Entre C/ Alcalá y C/ O’ Donell,-3.682319444444445,40.42156388888888,FALSE,1,15
18,670,40,2016-06-01T16:00:00Z,0.5,0.30000001192092896,0.4000000059604645,0.11999999731779099,8,96,11,17,1.4199999570846558,2.200000047683716,28079008,Escuelas Aguirre,Entre C/ Alcalá y C/ O’ Donell,-3.682319444444445,40.42156388888888,FALSE,1,16
12,670,33,2016-06-01T17:00:00Z,0.4000000059604645,0.30000001192092896,0.20000000298023224,0.10000000149011612,8,111,7,16,1.399999976158142,2,28079008,Escuelas Aguirre,Entre C/ Alcalá y C/ O’ Donell,-3.682319444444445,40.42156388888888,FALSE,1,17
12,670,40,2016-06-01T18:00:00Z,0.30000001192092896,0.30000001192092896,0.20000000298023224,0.10999999940395355,10,107,8,16,1.399999976158142,1.2000000476837158,28079008,Escuelas Aguirre,Entre C/ Alcalá y C/ O’ Donell,-3.682319444444445,40.42156388888888,FALSE,1,18
13,670,57,2016-06-01T19:00:00Z,0.5,0.30000001192092896,0.20000000298023224,0.11999999731779099,15,91,7,17,1.4199999570846558,1.899999976158142,28079008,Escuelas Aguirre,Entre C/ Alcalá y C/ O’ Donell,-3.682319444444445,40.42156388888888,FALSE,1,19
16,670,56,2016-06-01T20:00:00Z,0.6000000238418579,0.4000000059604645,0.30000001192092896,0.12999999523162842,11,83,8,17,1.440000057220459,2.299999952316284,28079008,Escuelas Aguirre,Entre C/ Alcalá y C/ O’ Donell,-3.682319444444445,40.42156388888888,FALSE,1,20
12,670,64,2016-06-01T21:00:00Z,0.699999988079071,0.4000000059604645,0.30000001192092896,0.15000000596046448,9,66,7,17,1.4600000381469727,3.200000047683716,28079008,Escuelas Aguirre,Entre C/ Alcalá y C/ O’ Donell,-3.682319444444445,40.42156388888888,FALSE,1,21
15,670,60,2016-06-01T22:00:00Z,0.800000011920929,0.4000000059604645,0.30000001192092896,0.17000000178813934,7,63,10,17,1.4800000190734863,2.5999999046325684,28079008,Escuelas Aguirre,Entre C/ Alcalá y C/ O’ Donell,-3.682319444444445,40.42156388888888,FALSE,1,22
11,670,62,2016-06-01T23:00:00Z,0.699999988079071,0.4000000059604645,0.4000000059604645,0.17000000178813934,5,60,7,17,1.4900000095367432,2.700000047683716,28079008,Escuelas Aguirre,Entre C/ Alcalá y C/ O’ Donell,-3.682319444444445,40.42156388888888,FALSE,1,23
11,670,60,2016-06-02T00:00:00Z,0.6000000238418579,0.4000000059604645,0.4000000059604645,0.1599999964237213,5,57,8,17,1.4800000190734863,2.5999999046325684,28079008,Escuelas Aguirre,Entre C/ Alcalá y C/ O’ Donell,-3.682319444444445,40.42156388888888,FALSE,2,0
12,670,42,2016-06-02T01:00:00Z,0.5,0.30000001192092896,0.30000001192092896,0.12999999523162842,4,68,8,17,1.440000057220459,2.700000047683716,28079008,Escuelas Aguirre,Entre C/ Alcalá y C/ O’ Donell,-3.682319444444445,40.42156388888888,FALSE,2,1
7,670,50,2016-06-02T02:00:00Z,0.4000000059604645,0.30000001192092896,0.20000000298023224,0.11999999731779099,4,58,3,17,1.4299999475479126,6.699999809265137,28079008,Escuelas Aguirre,Entre C/ Alcalá y C/ O’ Donell,-3.682319444444445,40.42156388888888,FALSE,2,2
4,670,41,2016-06-02T03:00:00Z,0.30000001192092896,0.30000001192092896,0.20000000298023224,0.11999999731779099,3,66,1,16,1.4299999475479126,3.299999952316284,28079008,Escuelas Aguirre,Entre C/ Alcalá y C/ O’ Donell,-3.682319444444445,40.42156388888888,TRUE,2,3
7,630,19,2016-06-01T04:00:00Z,0.10000000149011612,0.20000000298023224,0.10000000149011612,NA,1,88,NA,4,NA,0.5,28079018,Farolillo,Calle Farolillo - C/Ervigio,-3.7318527777777777,40.39478055555556,FALSE,1,4
8,630,19,2016-06-01T05:00:00Z,0.10000000149011612,0.20000000298023224,0.20000000298023224,NA,2,81,NA,4,NA,0.4000000059604645,28079018,Farolillo,Calle Farolillo - C/Ervigio,-3.7318527777777777,40.39478055555556,FALSE,1,5
8,630,20,2016-06-01T06:00:00Z,0.10000000149011612,0.20000000298023224,0.10000000149011612,NA,2,66,NA,4,NA,1.5,28079018,Farolillo,Calle Farolillo - C/Ervigio,-3.7318527777777777,40.39478055555556,FALSE,1,6
10,630,25,2016-06-01T07:00:00Z,0.10000000149011612,0.20000000298023224,0.10000000149011612,NA,2,50,NA,4,NA,1.899999976158142,28079018,Farolillo,Calle Farolillo - C/Ervigio,-3.7318527777777777,40.39478055555556,FALSE,1,7
11,630,56,2016-06-01T08:00:00Z,0.20000000298023224,0.30000001192092896,0.10000000149011612,NA,9,25,NA,4,NA,2.0999999046325684,28079018,Farolillo,Calle Farolillo - C/Ervigio,-3.7318527777777777,40.39478055555556,FALSE,1,8
13,630,66,2016-06-01T09:00:00Z,0.30000001192092896,0.4000000059604645,0.10000000149011612,NA,25,25,NA,5,NA,1.2999999523162842,28079018,Farolillo,Calle Farolillo - C/Ervigio,-3.7318527777777777,40.39478055555556,FALSE,1,9
18,630,59,2016-06-01T10:00:00Z,0.30000001192092896,0.30000001192092896,0.10000000149011612,NA,19,55,NA,5,NA,1.2000000476837158,28079018,Farolillo,Calle Farolillo - C/Ervigio,-3.7318527777777777,40.39478055555556,FALSE,1,10
18,630,57,2016-06-01T11:00:00Z,0.20000000298023224,0.30000001192092896,0.10000000149011612,NA,15,64,NA,4,NA,0.800000011920929,28079018,Farolillo,Calle Farolillo - C/Ervigio,-3.7318527777777777,40.39478055555556,FALSE,1,11
19,630,50,2016-06-01T12:00:00Z,0.20000000298023224,0.30000001192092896,0.10000000149011612,NA,12,75,NA,4,NA,1.2000000476837158,28079018,Farolillo,Calle Farolillo - C/Ervigio,-3.7318527777777777,40.39478055555556,FALSE,1,12
20,630,47,2016-06-01T13:00:00Z,0.20000000298023224,0.30000001192092896,0.10000000149011612,NA,11,81,NA,4,NA,1.600000023841858,28079018,Farolillo,Calle Farolillo - C/Ervigio,-3.7318527777777777,40.39478055555556,FALSE,1,13
15,630,37,2016-06-01T14:00:00Z,0.20000000298023224,0.30000001192092896,0.10000000149011612,NA,8,95,NA,4,NA,1.600000023841858,28079018,Farolillo,Calle Farolillo - C/Ervigio,-3.7318527777777777,40.39478055555556,FALSE,1,14
14,630,33,2016-06-01T15:00:00Z,0.20000000298023224,0.30000001192092896,0.10000000149011612,NA,6,105,NA,4,NA,0.8999999761581421,28079018,Farolillo,Calle Farolillo - C/Ervigio,-3.7318527777777777,40.39478055555556,FALSE,1,15
15,630,18,2016-06-01T16:00:00Z,0.10000000149011612,0.20000000298023224,0.10000000149011612,NA,3,127,NA,3,NA,0.699999988079071,28079018,Farolillo,Calle Farolillo - C/Ervigio,-3.7318527777777777,40.39478055555556,FALSE,1,16
13,630,15,2016-06-01T17:00:00Z,0.10000000149011612,0.20000000298023224,0.10000000149011612,NA,4,136,NA,4,NA,0.699999988079071,28079018,Farolillo,Calle Farolillo - C/Ervigio,-3.7318527777777777,40.39478055555556,FALSE,1,17
12,630,12,2016-06-01T18:00:00Z,0.10000000149011612,0.20000000298023224,0.10000000149011612,NA,1,137,NA,4,NA,0.5,28079018,Farolillo,Calle Farolillo - C/Ervigio,-3.7318527777777777,40.39478055555556,FALSE,1,18
9,630,19,2016-06-01T19:00:00Z,0.10000000149011612,0.20000000298023224,0.10000000149011612,NA,3,126,NA,4,NA,0.6000000238418579,28079018,Farolillo,Calle Farolillo - C/Ervigio,-3.7318527777777777,40.39478055555556,FALSE,1,19
29,630,20,2016-06-01T20:00:00Z,0.10000000149011612,0.20000000298023224,0.10000000149011612,NA,2,125,NA,4,NA,1.2999999523162842,28079018,Farolillo,Calle Farolillo - C/Ervigio,-3.7318527777777777,40.39478055555556,FALSE,1,20
40,630,26,2016-06-01T21:00:00Z,0.10000000149011612,0.20000000298023224,0.10000000149011612,NA,2,114,NA,4,NA,0.699999988079071,28079018,Farolillo,Calle Farolillo - C/Ervigio,-3.7318527777777777,40.39478055555556,FALSE,1,21
30,630,42,2016-06-01T22:00:00Z,0.20000000298023224,0.30000001192092896,0.10000000149011612,NA,2,88,NA,4,NA,0.5,28079018,Farolillo,Calle Farolillo - C/Ervigio,-3.7318527777777777,40.39478055555556,FALSE,1,22
10,630,48,2016-06-01T23:00:00Z,0.20000000298023224,0.30000001192092896,0.10000000149011612,NA,1,80,NA,4,NA,0.6000000238418579,28079018,Farolillo,Calle Farolillo - C/Ervigio,-3.7318527777777777,40.39478055555556,FALSE,1,23
10,630,48,2016-06-02T00:00:00Z,0.30000001192092896,0.30000001192092896,0.20000000298023224,NA,1,74,NA,4,NA,2.200000047683716,28079018,Farolillo,Calle Farolillo - C/Ervigio,-3.7318527777777777,40.39478055555556,FALSE,2,0
9,630,29,2016-06-02T01:00:00Z,0.20000000298023224,0.30000001192092896,0.10000000149011612,NA,1,93,NA,4,NA,1.2000000476837158,28079018,Farolillo,Calle Farolillo - C/Ervigio,-3.7318527777777777,40.39478055555556,FALSE,2,1
5,630,27,2016-06-02T02:00:00Z,0.10000000149011612,0.30000001192092896,0.10000000149011612,NA,1,85,NA,4,NA,1.2000000476837158,28079018,Farolillo,Calle Farolillo - C/Ervigio,-3.7318527777777777,40.39478055555556,FALSE,2,2
7,630,45,2016-06-02T03:00:00Z,0.10000000149011612,0.30000001192092896,0.10000000149011612,NA,3,54,NA,4,NA,2.5,28079018,Farolillo,Calle Farolillo - C/Ervigio,-3.7318527777777777,40.39478055555556,FALSE,2,3
6,642,11,2016-06-01T04:00:00Z,0.10000000149011612,0.4000000059604645,0.10000000149011612,0.029999999329447746,1,79,4,2,1.1799999475479126,2.0999999046325684,28079024,Casa de Campo,Casa de Campo  (Terminal del Teleférico),-3.7473472222222224,40.41935555555556,FALSE,1,4
11,642,7,2016-06-01T05:00:00Z,0.10000000149011612,0.4000000059604645,0.10000000149011612,0.029999999329447746,1,73,8,2,1.2000000476837158,1,28079024,Casa de Campo,Casa de Campo  (Terminal del Teleférico),-3.7473472222222224,40.41935555555556,FALSE,1,5
6,642,6,2016-06-01T06:00:00Z,0.10000000149011612,0.4000000059604645,0.10000000149011612,0.029999999329447746,1,71,4,2,1.1799999475479126,1.2999999523162842,28079024,Casa de Campo,Casa de Campo  (Terminal del Teleférico),-3.7473472222222224,40.41935555555556,FALSE,1,6
8,642,7,2016-06-01T07:00:00Z,0.10000000149011612,0.4000000059604645,0.10000000149011612,0.029999999329447746,1,62,7,2,1.1799999475479126,0.5,28079024,Casa de Campo,Casa de Campo  (Terminal del Teleférico),-3.7473472222222224,40.41935555555556,FALSE,1,7
6,642,10,2016-06-01T08:00:00Z,0.10000000149011612,0.30000001192092896,0.10000000149011612,0.029999999329447746,1,47,4,2,1.190000057220459,0.4000000059604645,28079024,Casa de Campo,Casa de Campo  (Terminal del Teleférico),-3.7473472222222224,40.41935555555556,FALSE,1,8
6,642,18,2016-06-01T09:00:00Z,0.10000000149011612,0.30000001192092896,0.10000000149011612,0.029999999329447746,6,36,3,2,1.2100000381469727,0.5,28079024,Casa de Campo,Casa de Campo  (Terminal del Teleférico),-3.7473472222222224,40.41935555555556,FALSE,1,9
19,642,55,2016-06-01T10:00:00Z,0.30000001192092896,0.5,0.20000000298023224,0.07000000029802322,26,34,12,3,1.25,2.0999999046325684,28079024,Casa de Campo,Casa de Campo  (Terminal del Teleférico),-3.7473472222222224,40.41935555555556,FALSE,1,10
24,642,52,2016-06-01T11:00:00Z,0.5,0.4000000059604645,0.30000001192092896,0.07999999821186066,19,54,14,3,1.2300000190734863,3.5999999046325684,28079024,Casa de Campo,Casa de Campo  (Terminal del Teleférico),-3.7473472222222224,40.41935555555556,FALSE,1,11
22,642,44,2016-06-01T12:00:00Z,0.4000000059604645,0.4000000059604645,0.30000001192092896,0.07000000029802322,14,61,12,3,1.2200000286102295,3.200000047683716,28079024,Casa de Campo,Casa de Campo  (Terminal del Teleférico),-3.7473472222222224,40.41935555555556,FALSE,1,12
20,642,40,2016-06-01T13:00:00Z,0.4000000059604645,0.4000000059604645,0.20000000298023224,0.07000000029802322,11,69,11,3,1.2100000381469727,3.200000047683716,28079024,Casa de Campo,Casa de Campo  (Terminal del Teleférico),-3.7473472222222224,40.41935555555556,FALSE,1,13
17,642,27,2016-06-01T14:00:00Z,0.30000001192092896,0.30000001192092896,0.20000000298023224,0.05000000074505806,6,83,9,2,1.190000057220459,2.700000047683716,28079024,Casa de Campo,Casa de Campo  (Terminal del Teleférico),-3.7473472222222224,40.41935555555556,FALSE,1,14
11,642,17,2016-06-01T15:00:00Z,0.20000000298023224,0.30000001192092896,0.10000000149011612,0.03999999910593033,3,97,5,2,1.1699999570846558,1.600000023841858,28079024,Casa de Campo,Casa de Campo  (Terminal del Teleférico),-3.7473472222222224,40.41935555555556,FALSE,1,15
10,642,6,2016-06-01T16:00:00Z,0.10000000149011612,0.20000000298023224,0.10000000149011612,0.029999999329447746,1,118,4,2,1.149999976158142,0.5,28079024,Casa de Campo,Casa de Campo  (Terminal del Teleférico),-3.7473472222222224,40.41935555555556,FALSE,1,16
8,642,3,2016-06-01T17:00:00Z,0.10000000149011612,0.20000000298023224,0.10000000149011612,0.029999999329447746,1,125,4,2,1.149999976158142,0.20000000298023224,28079024,Casa de Campo,Casa de Campo  (Terminal del Teleférico),-3.7473472222222224,40.41935555555556,FALSE,1,17
7,642,4,2016-06-01T18:00:00Z,0.10000000149011612,0.20000000298023224,0.10000000149011612,0.029999999329447746,1,123,4,2,1.149999976158142,0.10000000149011612,28079024,Casa de Campo,Casa de Campo  (Terminal del Teleférico),-3.7473472222222224,40.41935555555556,FALSE,1,18
8,642,4,2016-06-01T19:00:00Z,0.10000000149011612,0.20000000298023224,0.10000000149011612,0.03999999910593033,1,121,6,2,1.149999976158142,0.10000000149011612,28079024,Casa de Campo,Casa de Campo  (Terminal del Teleférico),-3.7473472222222224,40.41935555555556,FALSE,1,19
8,642,4,2016-06-01T20:00:00Z,0.10000000149011612,0.10000000149011612,0.10000000149011612,0.03999999910593033,1,120,4,2,1.1399999856948853,0.10000000149011612,28079024,Casa de Campo,Casa de Campo  (Terminal del Teleférico),-3.7473472222222224,40.41935555555556,FALSE,1,20
6,642,7,2016-06-01T21:00:00Z,0.10000000149011612,0.20000000298023224,0.10000000149011612,0.03999999910593033,1,111,3,2,1.149999976158142,0.20000000298023224,28079024,Casa de Campo,Casa de Campo  (Terminal del Teleférico),-3.7473472222222224,40.41935555555556,FALSE,1,21
7,642,13,2016-06-01T22:00:00Z,0.10000000149011612,0.20000000298023224,0.10000000149011612,0.03999999910593033,1,98,3,2,1.149999976158142,0.20000000298023224,28079024,Casa de Campo,Casa de Campo  (Terminal del Teleférico),-3.7473472222222224,40.41935555555556,FALSE,1,22
8,642,27,2016-06-01T23:00:00Z,0.10000000149011612,0.20000000298023224,0.10000000149011612,0.05999999865889549,1,80,4,2,1.1699999570846558,0.6000000238418579,28079024,Casa de Campo,Casa de Campo  (Terminal del Teleférico),-3.7473472222222224,40.41935555555556,FALSE,1,23
7,642,35,2016-06-02T00:00:00Z,0.20000000298023224,0.30000001192092896,0.10000000149011612,0.05000000074505806,1,68,3,2,1.1799999475479126,0.8999999761581421,28079024,Casa de Campo,Casa de Campo  (Terminal del Teleférico),-3.7473472222222224,40.41935555555556,FALSE,2,0
8,642,20,2016-06-02T01:00:00Z,0.10000000149011612,0.30000001192092896,0.10000000149011612,0.05000000074505806,1,81,4,2,1.1799999475479126,1.899999976158142,28079024,Casa de Campo,Casa de Campo  (Terminal del Teleférico),-3.7473472222222224,40.41935555555556,FALSE,2,1
9,642,14,2016-06-02T02:00:00Z,0.10000000149011612,0.30000001192092896,0.10000000149011612,0.05000000074505806,1,86,6,2,1.1799999475479126,2.200000047683716,28079024,Casa de Campo,Casa de Campo  (Terminal del Teleférico),-3.7473472222222224,40.41935555555556,FALSE,2,2
8,642,15,2016-06-02T03:00:00Z,0.10000000149011612,0.30000001192092896,0.10000000149011612,0.05000000074505806,1,74,6,2,1.1799999475479126,4.099999904632568,28079024,Casa de Campo,Casa de Campo  (Terminal del Teleférico),-3.7473472222222224,40.41935555555556,FALSE,2,3
9,685,12,2016-06-01T04:00:00Z,NA,0.20000000298023224,NA,NA,1,NA,NA,5,NA,NA,28079036,Moratalaz,Avd. Moratalaz  esq. Camino de los Vinateros,-3.6453055555555554,40.40794722222222,FALSE,1,4
10,685,16,2016-06-01T05:00:00Z,NA,0.20000000298023224,NA,NA,1,NA,NA,5,NA,NA,28079036,Moratalaz,Avd. Moratalaz  esq. Camino de los Vinateros,-3.6453055555555554,40.40794722222222,FALSE,1,5
15,685,16,2016-06-01T06:00:00Z,NA,0.20000000298023224,NA,NA,2,NA,NA,5,NA,NA,28079036,Moratalaz,Avd. Moratalaz  esq. Camino de los Vinateros,-3.6453055555555554,40.40794722222222,FALSE,1,6
16,685,33,2016-06-01T07:00:00Z,NA,0.20000000298023224,NA,NA,4,NA,NA,6,NA,NA,28079036,Moratalaz,Avd. Moratalaz  esq. Camino de los Vinateros,-3.6453055555555554,40.40794722222222,FALSE,1,7
14,685,41,2016-06-01T08:00:00Z,NA,0.20000000298023224,NA,NA,7,NA,NA,6,NA,NA,28079036,Moratalaz,Avd. Moratalaz  esq. Camino de los Vinateros,-3.6453055555555554,40.40794722222222,FALSE,1,8
20,685,55,2016-06-01T09:00:00Z,NA,0.30000001192092896,NA,NA,13,NA,NA,6,NA,NA,28079036,Moratalaz,Avd. Moratalaz  esq. Camino de los Vinateros,-3.6453055555555554,40.40794722222222,FALSE,1,9
18,685,52,2016-06-01T10:00:00Z,NA,0.30000001192092896,NA,NA,18,NA,NA,6,NA,NA,28079036,Moratalaz,Avd. Moratalaz  esq. Camino de los Vinateros,-3.6453055555555554,40.40794722222222,FALSE,1,10
19,685,49,2016-06-01T11:00:00Z,NA,0.30000001192092896,NA,NA,18,NA,NA,6,NA,NA,28079036,Moratalaz,Avd. Moratalaz  esq. Camino de los Vinateros,-3.6453055555555554,40.40794722222222,FALSE,1,11
19,685,42,2016-06-01T12:00:00Z,NA,0.20000000298023224,NA,NA,12,NA,NA,5,NA,NA,28079036,Moratalaz,Avd. Moratalaz  esq. Camino de los Vinateros,-3.6453055555555554,40.40794722222222,FALSE,1,12
21,685,43,2016-06-01T13:00:00Z,NA,0.4000000059604645,NA,NA,13,NA,NA,6,NA,NA,28079036,Moratalaz,Avd. Moratalaz  esq. Camino de los Vinateros,-3.6453055555555554,40.40794722222222,FALSE,1,13
16,685,41,2016-06-01T14:00:00Z,NA,0.30000001192092896,NA,NA,12,NA,NA,6,NA,NA,28079036,Moratalaz,Avd. Moratalaz  esq. Camino de los Vinateros,-3.6453055555555554,40.40794722222222,FALSE,1,14
15,685,43,2016-06-01T15:00:00Z,NA,0.20000000298023224,NA,NA,12,NA,NA,5,NA,NA,28079036,Moratalaz,Avd. Moratalaz  esq. Camino de los Vinateros,-3.6453055555555554,40.40794722222222,FALSE,1,15
22,685,41,2016-06-01T16:00:00Z,NA,0.20000000298023224,NA,NA,10,NA,NA,5,NA,NA,28079036,Moratalaz,Avd. Moratalaz  esq. Camino de los Vinateros,-3.6453055555555554,40.40794722222222,FALSE,1,16
21,685,36,2016-06-01T17:00:00Z,NA,0.20000000298023224,NA,NA,8,NA,NA,5,NA,NA,28079036,Moratalaz,Avd. Moratalaz  esq. Camino de los Vinateros,-3.6453055555555554,40.40794722222222,FALSE,1,17
13,685,24,2016-06-01T18:00:00Z,NA,0.20000000298023224,NA,NA,6,NA,NA,5,NA,NA,28079036,Moratalaz,Avd. Moratalaz  esq. Camino de los Vinateros,-3.6453055555555554,40.40794722222222,FALSE,1,18
15,685,31,2016-06-01T19:00:00Z,NA,0.20000000298023224,NA,NA,6,NA,NA,5,NA,NA,28079036,Moratalaz,Avd. Moratalaz  esq. Camino de los Vinateros,-3.6453055555555554,40.40794722222222,FALSE,1,19
18,685,27,2016-06-01T20:00:00Z,NA,0.20000000298023224,NA,NA,6,NA,NA,5,NA,NA,28079036,Moratalaz,Avd. Moratalaz  esq. Camino de los Vinateros,-3.6453055555555554,40.40794722222222,FALSE,1,20
10,685,31,2016-06-01T21:00:00Z,NA,0.20000000298023224,NA,NA,6,NA,NA,5,NA,NA,28079036,Moratalaz,Avd. Moratalaz  esq. Camino de los Vinateros,-3.6453055555555554,40.40794722222222,FALSE,1,21
15,685,37,2016-06-01T22:00:00Z,NA,0.20000000298023224,NA,NA,7,NA,NA,5,NA,NA,28079036,Moratalaz,Avd. Moratalaz  esq. Camino de los Vinateros,-3.6453055555555554,40.40794722222222,FALSE,1,22
12,685,21,2016-06-01T23:00:00Z,NA,0.20000000298023224,NA,NA,2,NA,NA,5,NA,NA,28079036,Moratalaz,Avd. Moratalaz  esq. Camino de los Vinateros,-3.6453055555555554,40.40794722222222,FALSE,1,23
15,685,22,2016-06-02T00:00:00Z,NA,0.20000000298023224,NA,NA,2,NA,NA,5,NA,NA,28079036,Moratalaz,Avd. Moratalaz  esq. Camino de los Vinateros,-3.6453055555555554,40.40794722222222,FALSE,2,0
12,685,24,2016-06-02T01:00:00Z,NA,0.20000000298023224,NA,NA,1,NA,NA,5,NA,NA,28079036,Moratalaz,Avd. Moratalaz  esq. Camino de los Vinateros,-3.6453055555555554,40.40794722222222,FALSE,2,1
8,685,36,2016-06-02T02:00:00Z,NA,0.20000000298023224,NA,NA,1,NA,NA,6,NA,NA,28079036,Moratalaz,Avd. Moratalaz  esq. Camino de los Vinateros,-3.6453055555555554,40.40794722222222,FALSE,2,2
9,685,23,2016-06-02T03:00:00Z,NA,0.20000000298023224,NA,NA,2,NA,NA,6,NA,NA,28079036,Moratalaz,Avd. Moratalaz  esq. Camino de los Vinateros,-3.6453055555555554,40.40794722222222,FALSE,2,3
8,698,13,2016-06-01T04:00:00Z,0.10000000149011612,NA,0.10000000149011612,NA,1,NA,5,2,NA,1,28079038,Cuatro Caminos,Avda. Pablo Iglesias esq. C/ Marqués de Lema,-3.7071277777777785,40.44554444444445,FALSE,1,4
8,698,23,2016-06-01T05:00:00Z,0.10000000149011612,NA,0.10000000149011612,NA,12,NA,5,2,NA,0.4000000059604645,28079038,Cuatro Caminos,Avda. Pablo Iglesias esq. C/ Marqués de Lema,-3.7071277777777785,40.44554444444445,FALSE,1,5
9,698,18,2016-06-01T06:00:00Z,0.10000000149011612,NA,0.10000000149011612,NA,3,NA,5,2,NA,0.699999988079071,28079038,Cuatro Caminos,Avda. Pablo Iglesias esq. C/ Marqués de Lema,-3.7071277777777785,40.44554444444445,FALSE,1,6
10,698,23,2016-06-01T07:00:00Z,0.10000000149011612,NA,0.10000000149011612,NA,4,NA,8,2,NA,1,28079038,Cuatro Caminos,Avda. Pablo Iglesias esq. C/ Marqués de Lema,-3.7071277777777785,40.44554444444445,FALSE,1,7
14,698,66,2016-06-01T08:00:00Z,0.10000000149011612,NA,0.20000000298023224,NA,34,NA,10,3,NA,1.899999976158142,28079038,Cuatro Caminos,Avda. Pablo Iglesias esq. C/ Marqués de Lema,-3.7071277777777785,40.44554444444445,FALSE,1,8
16,698,66,2016-06-01T09:00:00Z,0.30000001192092896,NA,0.4000000059604645,NA,42,NA,10,3,NA,3,28079038,Cuatro Caminos,Avda. Pablo Iglesias esq. C/ Marqués de Lema,-3.7071277777777785,40.44554444444445,FALSE,1,9
18,698,59,2016-06-01T10:00:00Z,0.20000000298023224,NA,0.20000000298023224,NA,31,NA,12,2,NA,3.0999999046325684,28079038,Cuatro Caminos,Avda. Pablo Iglesias esq. C/ Marqués de Lema,-3.7071277777777785,40.44554444444445,FALSE,1,10
15,698,61,2016-06-01T11:00:00Z,0.20000000298023224,NA,0.5,NA,27,NA,9,3,NA,4,28079038,Cuatro Caminos,Avda. Pablo Iglesias esq. C/ Marqués de Lema,-3.7071277777777785,40.44554444444445,FALSE,1,11
19,698,50,2016-06-01T12:00:00Z,0.10000000149011612,NA,0.20000000298023224,NA,21,NA,11,2,NA,3.5999999046325684,28079038,Cuatro Caminos,Avda. Pablo Iglesias esq. C/ Marqués de Lema,-3.7071277777777785,40.44554444444445,FALSE,1,12
20,698,53,2016-06-01T13:00:00Z,0.4000000059604645,NA,0.699999988079071,NA,23,NA,13,2,NA,5.5,28079038,Cuatro Caminos,Avda. Pablo Iglesias esq. C/ Marqués de Lema,-3.7071277777777785,40.44554444444445,FALSE,1,13
25,698,54,2016-06-01T14:00:00Z,0.10000000149011612,NA,0.20000000298023224,NA,26,NA,15,2,NA,2.799999952316284,28079038,Cuatro Caminos,Avda. Pablo Iglesias esq. C/ Marqués de Lema,-3.7071277777777785,40.44554444444445,FALSE,1,14
25,698,41,2016-06-01T15:00:00Z,0.10000000149011612,NA,0.10000000149011612,NA,17,NA,15,2,NA,2.9000000953674316,28079038,Cuatro Caminos,Avda. Pablo Iglesias esq. C/ Marqués de Lema,-3.7071277777777785,40.44554444444445,FALSE,1,15
17,698,34,2016-06-01T16:00:00Z,0.10000000149011612,NA,0.10000000149011612,NA,13,NA,11,2,NA,1.7000000476837158,28079038,Cuatro Caminos,Avda. Pablo Iglesias esq. C/ Marqués de Lema,-3.7071277777777785,40.44554444444445,FALSE,1,16
16,698,26,2016-06-01T17:00:00Z,0.10000000149011612,NA,0.10000000149011612,NA,11,NA,12,2,NA,1.2999999523162842,28079038,Cuatro Caminos,Avda. Pablo Iglesias esq. C/ Marqués de Lema,-3.7071277777777785,40.44554444444445,FALSE,1,17
14,698,34,2016-06-01T18:00:00Z,0.10000000149011612,NA,0.10000000149011612,NA,16,NA,11,2,NA,0.699999988079071,28079038,Cuatro Caminos,Avda. Pablo Iglesias esq. C/ Marqués de Lema,-3.7071277777777785,40.44554444444445,FALSE,1,18
12,698,35,2016-06-01T19:00:00Z,0.10000000149011612,NA,0.10000000149011612,NA,16,NA,8,2,NA,0.699999988079071,28079038,Cuatro Caminos,Avda. Pablo Iglesias esq. C/ Marqués de Lema,-3.7071277777777785,40.44554444444445,FALSE,1,19
11,698,36,2016-06-01T20:00:00Z,0.10000000149011612,NA,0.10000000149011612,NA,13,NA,7,2,NA,0.8999999761581421,28079038,Cuatro Caminos,Avda. Pablo Iglesias esq. C/ Marqués de Lema,-3.7071277777777785,40.44554444444445,FALSE,1,20
10,698,62,2016-06-01T21:00:00Z,0.10000000149011612,NA,0.10000000149011612,NA,26,NA,5,2,NA,2.5999999046325684,28079038,Cuatro Caminos,Avda. Pablo Iglesias esq. C/ Marqués de Lema,-3.7071277777777785,40.44554444444445,FALSE,1,21
11,698,69,2016-06-01T22:00:00Z,0.20000000298023224,NA,0.30000001192092896,NA,20,NA,6,2,NA,3.700000047683716,28079038,Cuatro Caminos,Avda. Pablo Iglesias esq. C/ Marqués de Lema,-3.7071277777777785,40.44554444444445,FALSE,1,22
12,698,68,2016-06-01T23:00:00Z,0.30000001192092896,NA,0.5,NA,19,NA,7,3,NA,3.9000000953674316,28079038,Cuatro Caminos,Avda. Pablo Iglesias esq. C/ Marqués de Lema,-3.7071277777777785,40.44554444444445,FALSE,1,23
9,698,42,2016-06-02T00:00:00Z,0.20000000298023224,NA,0.6000000238418579,NA,9,NA,5,2,NA,4.400000095367432,28079038,Cuatro Caminos,Avda. Pablo Iglesias esq. C/ Marqués de Lema,-3.7071277777777785,40.44554444444445,FALSE,2,0
11,698,27,2016-06-02T01:00:00Z,0.10000000149011612,NA,0.10000000149011612,NA,2,NA,8,2,NA,2.0999999046325684,28079038,Cuatro Caminos,Avda. Pablo Iglesias esq. C/ Marqués de Lema,-3.7071277777777785,40.44554444444445,FALSE,2,1
7,698,19,2016-06-02T02:00:00Z,0.10000000149011612,NA,0.10000000149011612,NA,1,NA,4,2,NA,2.299999952316284,28079038,Cuatro Caminos,Avda. Pablo Iglesias esq. C/ Marqués de Lema,-3.7071277777777785,40.44554444444445,FALSE,2,2
7,698,14,2016-06-02T03:00:00Z,0.10000000149011612,NA,0.10000000149011612,NA,1,NA,4,2,NA,1,28079038,Cuatro Caminos,Avda. Pablo Iglesias esq. C/ Marqués de Lema,-3.7071277777777785,40.44554444444445,FALSE,2,3
9,677,18,2016-06-01T04:00:00Z,NA,NA,NA,NA,1,NA,NA,5,NA,NA,28079040,Vallecas,C/ Arroyo del Olivar  esq. C/  Río Grande.,-3.6515222222222223,40.38815277777777,FALSE,1,4
9,677,11,2016-06-01T05:00:00Z,NA,NA,NA,NA,1,NA,NA,5,NA,NA,28079040,Vallecas,C/ Arroyo del Olivar  esq. C/  Río Grande.,-3.6515222222222223,40.38815277777777,FALSE,1,5
11,677,16,2016-06-01T06:00:00Z,NA,NA,NA,NA,1,NA,NA,5,NA,NA,28079040,Vallecas,C/ Arroyo del Olivar  esq. C/  Río Grande.,-3.6515222222222223,40.38815277777777,FALSE,1,6
13,677,33,2016-06-01T07:00:00Z,NA,NA,NA,NA,1,NA,NA,5,NA,NA,28079040,Vallecas,C/ Arroyo del Olivar  esq. C/  Río Grande.,-3.6515222222222223,40.38815277777777,FALSE,1,7
15,677,45,2016-06-01T08:00:00Z,NA,NA,NA,NA,4,NA,NA,5,NA,NA,28079040,Vallecas,C/ Arroyo del Olivar  esq. C/  Río Grande.,-3.6515222222222223,40.38815277777777,FALSE,1,8
21,677,51,2016-06-01T09:00:00Z,NA,NA,NA,NA,11,NA,NA,5,NA,NA,28079040,Vallecas,C/ Arroyo del Olivar  esq. C/  Río Grande.,-3.6515222222222223,40.38815277777777,FALSE,1,9
23,677,49,2016-06-01T10:00:00Z,NA,NA,NA,NA,14,NA,NA,5,NA,NA,28079040,Vallecas,C/ Arroyo del Olivar  esq. C/  Río Grande.,-3.6515222222222223,40.38815277777777,FALSE,1,10
24,677,53,2016-06-01T11:00:00Z,NA,NA,NA,NA,17,NA,NA,5,NA,NA,28079040,Vallecas,C/ Arroyo del Olivar  esq. C/  Río Grande.,-3.6515222222222223,40.38815277777777,FALSE,1,11
24,677,53,2016-06-01T12:00:00Z,NA,NA,NA,NA,17,NA,NA,5,NA,NA,28079040,Vallecas,C/ Arroyo del Olivar  esq. C/  Río Grande.,-3.6515222222222223,40.38815277777777,FALSE,1,12
23,677,50,2016-06-01T13:00:00Z,NA,NA,NA,NA,17,NA,NA,5,NA,NA,28079040,Vallecas,C/ Arroyo del Olivar  esq. C/  Río Grande.,-3.6515222222222223,40.38815277777777,FALSE,1,13
20,677,45,2016-06-01T14:00:00Z,NA,NA,NA,NA,14,NA,NA,5,NA,NA,28079040,Vallecas,C/ Arroyo del Olivar  esq. C/  Río Grande.,-3.6515222222222223,40.38815277777777,FALSE,1,14
14,677,31,2016-06-01T15:00:00Z,NA,NA,NA,NA,9,NA,NA,4,NA,NA,28079040,Vallecas,C/ Arroyo del Olivar  esq. C/  Río Grande.,-3.6515222222222223,40.38815277777777,FALSE,1,15
17,677,31,2016-06-01T16:00:00Z,NA,NA,NA,NA,8,NA,NA,4,NA,NA,28079040,Vallecas,C/ Arroyo del Olivar  esq. C/  Río Grande.,-3.6515222222222223,40.38815277777777,FALSE,1,16
17,677,25,2016-06-01T17:00:00Z,NA,NA,NA,NA,4,NA,NA,4,NA,NA,28079040,Vallecas,C/ Arroyo del Olivar  esq. C/  Río Grande.,-3.6515222222222223,40.38815277777777,FALSE,1,17
13,677,20,2016-06-01T18:00:00Z,NA,NA,NA,NA,3,NA,NA,4,NA,NA,28079040,Vallecas,C/ Arroyo del Olivar  esq. C/  Río Grande.,-3.6515222222222223,40.38815277777777,FALSE,1,18
11,677,24,2016-06-01T19:00:00Z,NA,NA,NA,NA,4,NA,NA,4,NA,NA,28079040,Vallecas,C/ Arroyo del Olivar  esq. C/  Río Grande.,-3.6515222222222223,40.38815277777777,FALSE,1,19
13,677,30,2016-06-01T20:00:00Z,NA,NA,NA,NA,7,NA,NA,5,NA,NA,28079040,Vallecas,C/ Arroyo del Olivar  esq. C/  Río Grande.,-3.6515222222222223,40.38815277777777,FALSE,1,20
10,677,26,2016-06-01T21:00:00Z,NA,NA,NA,NA,2,NA,NA,5,NA,NA,28079040,Vallecas,C/ Arroyo del Olivar  esq. C/  Río Grande.,-3.6515222222222223,40.38815277777777,FALSE,1,21
11,677,30,2016-06-01T22:00:00Z,NA,NA,NA,NA,1,NA,NA,5,NA,NA,28079040,Vallecas,C/ Arroyo del Olivar  esq. C/  Río Grande.,-3.6515222222222223,40.38815277777777,FALSE,1,22
10,677,25,2016-06-01T23:00:00Z,NA,NA,NA,NA,1,NA,NA,5,NA,NA,28079040,Vallecas,C/ Arroyo del Olivar  esq. C/  Río Grande.,-3.6515222222222223,40.38815277777777,FALSE,1,23
11,677,21,2016-06-02T00:00:00Z,NA,NA,NA,NA,1,NA,NA,5,NA,NA,28079040,Vallecas,C/ Arroyo del Olivar  esq. C/  Río Grande.,-3.6515222222222223,40.38815277777777,FALSE,2,0
11,677,19,2016-06-02T01:00:00Z,NA,NA,NA,NA,1,NA,NA,5,NA,NA,28079040,Vallecas,C/ Arroyo del Olivar  esq. C/  Río Grande.,-3.6515222222222223,40.38815277777777,FALSE,2,1
7,677,35,2016-06-02T02:00:00Z,NA,NA,NA,NA,1,NA,NA,6,NA,NA,28079040,Vallecas,C/ Arroyo del Olivar  esq. C/  Río Grande.,-3.6515222222222223,40.38815277777777,FALSE,2,2
6,677,18,2016-06-02T03:00:00Z,NA,NA,NA,NA,1,NA,NA,5,NA,NA,28079040,Vallecas,C/ Arroyo del Olivar  esq. C/  Río Grande.,-3.6515222222222223,40.38815277777777,FALSE,2,3
9,599,20,2016-06-01T04:00:00Z,NA,NA,NA,NA,1,NA,7,NA,NA,NA,28079047,Mendez Alvaro,C/ Juan de Mariana / Pza. Amanecer Mendez Alvaro,-3.686825,40.398113888888886,FALSE,1,4
9,599,14,2016-06-01T05:00:00Z,NA,NA,NA,NA,1,NA,6,NA,NA,NA,28079047,Mendez Alvaro,C/ Juan de Mariana / Pza. Amanecer Mendez Alvaro,-3.686825,40.398113888888886,FALSE,1,5
9,599,15,2016-06-01T06:00:00Z,NA,NA,NA,NA,1,NA,6,NA,NA,NA,28079047,Mendez Alvaro,C/ Juan de Mariana / Pza. Amanecer Mendez Alvaro,-3.686825,40.398113888888886,FALSE,1,6
10,599,26,2016-06-01T07:00:00Z,NA,NA,NA,NA,1,NA,7,NA,NA,NA,28079047,Mendez Alvaro,C/ Juan de Mariana / Pza. Amanecer Mendez Alvaro,-3.686825,40.398113888888886,FALSE,1,7
8,599,47,2016-06-01T08:00:00Z,NA,NA,NA,NA,9,NA,5,NA,NA,NA,28079047,Mendez Alvaro,C/ Juan de Mariana / Pza. Amanecer Mendez Alvaro,-3.686825,40.398113888888886,FALSE,1,8
14,599,62,2016-06-01T09:00:00Z,NA,NA,NA,NA,22,NA,9,NA,NA,NA,28079047,Mendez Alvaro,C/ Juan de Mariana / Pza. Amanecer Mendez Alvaro,-3.686825,40.398113888888886,FALSE,1,9
16,599,55,2016-06-01T10:00:00Z,NA,NA,NA,NA,18,NA,10,NA,NA,NA,28079047,Mendez Alvaro,C/ Juan de Mariana / Pza. Amanecer Mendez Alvaro,-3.686825,40.398113888888886,FALSE,1,10
14,599,52,2016-06-01T11:00:00Z,NA,NA,NA,NA,17,NA,7,NA,NA,NA,28079047,Mendez Alvaro,C/ Juan de Mariana / Pza. Amanecer Mendez Alvaro,-3.686825,40.398113888888886,FALSE,1,11
14,599,48,2016-06-01T12:00:00Z,NA,NA,NA,NA,15,NA,7,NA,NA,NA,28079047,Mendez Alvaro,C/ Juan de Mariana / Pza. Amanecer Mendez Alvaro,-3.686825,40.398113888888886,FALSE,1,12
20,599,47,2016-06-01T13:00:00Z,NA,NA,NA,NA,14,NA,12,NA,NA,NA,28079047,Mendez Alvaro,C/ Juan de Mariana / Pza. Amanecer Mendez Alvaro,-3.686825,40.398113888888886,FALSE,1,13
22,599,35,2016-06-01T14:00:00Z,NA,NA,NA,NA,9,NA,15,NA,NA,NA,28079047,Mendez Alvaro,C/ Juan de Mariana / Pza. Amanecer Mendez Alvaro,-3.686825,40.398113888888886,FALSE,1,14
13,599,26,2016-06-01T15:00:00Z,NA,NA,NA,NA,6,NA,6,NA,NA,NA,28079047,Mendez Alvaro,C/ Juan de Mariana / Pza. Amanecer Mendez Alvaro,-3.686825,40.398113888888886,FALSE,1,15
14,599,21,2016-06-01T16:00:00Z,NA,NA,NA,NA,4,NA,8,NA,NA,NA,28079047,Mendez Alvaro,C/ Juan de Mariana / Pza. Amanecer Mendez Alvaro,-3.686825,40.398113888888886,FALSE,1,16
10,599,13,2016-06-01T17:00:00Z,NA,NA,NA,NA,2,NA,4,NA,NA,NA,28079047,Mendez Alvaro,C/ Juan de Mariana / Pza. Amanecer Mendez Alvaro,-3.686825,40.398113888888886,FALSE,1,17
11,599,14,2016-06-01T18:00:00Z,NA,NA,NA,NA,4,NA,6,NA,NA,NA,28079047,Mendez Alvaro,C/ Juan de Mariana / Pza. Amanecer Mendez Alvaro,-3.686825,40.398113888888886,FALSE,1,18
9,599,13,2016-06-01T19:00:00Z,NA,NA,NA,NA,2,NA,5,NA,NA,NA,28079047,Mendez Alvaro,C/ Juan de Mariana / Pza. Amanecer Mendez Alvaro,-3.686825,40.398113888888886,FALSE,1,19
10,599,16,2016-06-01T20:00:00Z,NA,NA,NA,NA,2,NA,5,NA,NA,NA,28079047,Mendez Alvaro,C/ Juan de Mariana / Pza. Amanecer Mendez Alvaro,-3.686825,40.398113888888886,FALSE,1,20
10,599,38,2016-06-01T21:00:00Z,NA,NA,NA,NA,4,NA,5,NA,NA,NA,28079047,Mendez Alvaro,C/ Juan de Mariana / Pza. Amanecer Mendez Alvaro,-3.686825,40.398113888888886,FALSE,1,21
12,599,40,2016-06-01T22:00:00Z,NA,NA,NA,NA,3,NA,7,NA,NA,NA,28079047,Mendez Alvaro,C/ Juan de Mariana / Pza. Amanecer Mendez Alvaro,-3.686825,40.398113888888886,FALSE,1,22
9,599,39,2016-06-01T23:00:00Z,NA,NA,NA,NA,2,NA,4,NA,NA,NA,28079047,Mendez Alvaro,C/ Juan de Mariana / Pza. Amanecer Mendez Alvaro,-3.686825,40.398113888888886,FALSE,1,23
13,599,41,2016-06-02T00:00:00Z,NA,NA,NA,NA,2,NA,9,NA,NA,NA,28079047,Mendez Alvaro,C/ Juan de Mariana / Pza. Amanecer Mendez Alvaro,-3.686825,40.398113888888886,FALSE,2,0
8,599,27,2016-06-02T01:00:00Z,NA,NA,NA,NA,4,NA,5,NA,NA,NA,28079047,Mendez Alvaro,C/ Juan de Mariana / Pza. Amanecer Mendez Alvaro,-3.686825,40.398113888888886,FALSE,2,1
5,599,33,2016-06-02T02:00:00Z,NA,NA,NA,NA,1,NA,3,NA,NA,NA,28079047,Mendez Alvaro,C/ Juan de Mariana / Pza. Amanecer Mendez Alvaro,-3.686825,40.398113888888886,FALSE,2,2
5,599,38,2016-06-02T03:00:00Z,NA,NA,NA,NA,1,NA,3,NA,NA,NA,28079047,Mendez Alvaro,C/ Juan de Mariana / Pza. Amanecer Mendez Alvaro,-3.686825,40.398113888888886,FALSE,2,3
9,676,13,2016-06-01T04:00:00Z,NA,NA,NA,NA,1,NA,7,NA,NA,NA,28079048,Castellana,C/ Jose Gutierrez Abascal,-3.690366666666667,40.43989722222222,FALSE,1,4
6,676,8,2016-06-01T05:00:00Z,NA,NA,NA,NA,1,NA,5,NA,NA,NA,28079048,Castellana,C/ Jose Gutierrez Abascal,-3.690366666666667,40.43989722222222,FALSE,1,5
8,676,16,2016-06-01T06:00:00Z,NA,NA,NA,NA,2,NA,6,NA,NA,NA,28079048,Castellana,C/ Jose Gutierrez Abascal,-3.690366666666667,40.43989722222222,FALSE,1,6
8,676,16,2016-06-01T07:00:00Z,NA,NA,NA,NA,2,NA,5,NA,NA,NA,28079048,Castellana,C/ Jose Gutierrez Abascal,-3.690366666666667,40.43989722222222,FALSE,1,7
8,676,38,2016-06-01T08:00:00Z,NA,NA,NA,NA,5,NA,4,NA,NA,NA,28079048,Castellana,C/ Jose Gutierrez Abascal,-3.690366666666667,40.43989722222222,FALSE,1,8
9,676,41,2016-06-01T09:00:00Z,NA,NA,NA,NA,3,NA,4,NA,NA,NA,28079048,Castellana,C/ Jose Gutierrez Abascal,-3.690366666666667,40.43989722222222,FALSE,1,9
12,676,54,2016-06-01T10:00:00Z,NA,NA,NA,NA,8,NA,7,NA,NA,NA,28079048,Castellana,C/ Jose Gutierrez Abascal,-3.690366666666667,40.43989722222222,FALSE,1,10
21,676,44,2016-06-01T11:00:00Z,NA,NA,NA,NA,6,NA,12,NA,NA,NA,28079048,Castellana,C/ Jose Gutierrez Abascal,-3.690366666666667,40.43989722222222,FALSE,1,11
14,676,51,2016-06-01T12:00:00Z,NA,NA,NA,NA,10,NA,8,NA,NA,NA,28079048,Castellana,C/ Jose Gutierrez Abascal,-3.690366666666667,40.43989722222222,FALSE,1,12
21,676,76,2016-06-01T13:00:00Z,NA,NA,NA,NA,21,NA,11,NA,NA,NA,28079048,Castellana,C/ Jose Gutierrez Abascal,-3.690366666666667,40.43989722222222,FALSE,1,13
26,676,61,2016-06-01T14:00:00Z,NA,NA,NA,NA,14,NA,15,NA,NA,NA,28079048,Castellana,C/ Jose Gutierrez Abascal,-3.690366666666667,40.43989722222222,FALSE,1,14
19,676,54,2016-06-01T15:00:00Z,NA,NA,NA,NA,10,NA,12,NA,NA,NA,28079048,Castellana,C/ Jose Gutierrez Abascal,-3.690366666666667,40.43989722222222,FALSE,1,15
12,676,39,2016-06-01T16:00:00Z,NA,NA,NA,NA,6,NA,6,NA,NA,NA,28079048,Castellana,C/ Jose Gutierrez Abascal,-3.690366666666667,40.43989722222222,FALSE,1,16
18,676,33,2016-06-01T17:00:00Z,NA,NA,NA,NA,6,NA,12,NA,NA,NA,28079048,Castellana,C/ Jose Gutierrez Abascal,-3.690366666666667,40.43989722222222,FALSE,1,17
17,676,32,2016-06-01T18:00:00Z,NA,NA,NA,NA,5,NA,12,NA,NA,NA,28079048,Castellana,C/ Jose Gutierrez Abascal,-3.690366666666667,40.43989722222222,FALSE,1,18
16,676,42,2016-06-01T19:00:00Z,NA,NA,NA,NA,7,NA,11,NA,NA,NA,28079048,Castellana,C/ Jose Gutierrez Abascal,-3.690366666666667,40.43989722222222,FALSE,1,19
14,676,34,2016-06-01T20:00:00Z,NA,NA,NA,NA,4,NA,10,NA,NA,NA,28079048,Castellana,C/ Jose Gutierrez Abascal,-3.690366666666667,40.43989722222222,FALSE,1,20
11,676,20,2016-06-01T21:00:00Z,NA,NA,NA,NA,2,NA,7,NA,NA,NA,28079048,Castellana,C/ Jose Gutierrez Abascal,-3.690366666666667,40.43989722222222,FALSE,1,21
12,676,21,2016-06-01T22:00:00Z,NA,NA,NA,NA,1,NA,7,NA,NA,NA,28079048,Castellana,C/ Jose Gutierrez Abascal,-3.690366666666667,40.43989722222222,FALSE,1,22
9,676,24,2016-06-01T23:00:00Z,NA,NA,NA,NA,2,NA,6,NA,NA,NA,28079048,Castellana,C/ Jose Gutierrez Abascal,-3.690366666666667,40.43989722222222,FALSE,1,23
7,676,24,2016-06-02T00:00:00Z,NA,NA,NA,NA,2,NA,5,NA,NA,NA,28079048,Castellana,C/ Jose Gutierrez Abascal,-3.690366666666667,40.43989722222222,FALSE,2,0
8,676,18,2016-06-02T01:00:00Z,NA,NA,NA,NA,1,NA,5,NA,NA,NA,28079048,Castellana,C/ Jose Gutierrez Abascal,-3.690366666666667,40.43989722222222,FALSE,2,1
8,676,20,2016-06-02T02:00:00Z,NA,NA,NA,NA,1,NA,5,NA,NA,NA,28079048,Castellana,C/ Jose Gutierrez Abascal,-3.690366666666667,40.43989722222222,FALSE,2,2
6,676,14,2016-06-02T03:00:00Z,NA,NA,NA,NA,1,NA,4,NA,NA,NA,28079048,Castellana,C/ Jose Gutierrez Abascal,-3.690366666666667,40.43989722222222,FALSE,2,3
6,728,19,2016-06-01T04:00:00Z,NA,NA,NA,NA,4,NA,4,NA,NA,NA,28079050,Plaza Castilla,Plaza Castilla (Canal),-3.688769444444445,40.46557222222223,FALSE,1,4
2,728,24,2016-06-01T05:00:00Z,NA,NA,NA,NA,3,NA,4,NA,NA,NA,28079050,Plaza Castilla,Plaza Castilla (Canal),-3.688769444444445,40.46557222222223,TRUE,1,5
7,728,18,2016-06-01T06:00:00Z,NA,NA,NA,NA,10,NA,5,NA,NA,NA,28079050,Plaza Castilla,Plaza Castilla (Canal),-3.688769444444445,40.46557222222223,FALSE,1,6
11,728,28,2016-06-01T07:00:00Z,NA,NA,NA,NA,3,NA,8,NA,NA,NA,28079050,Plaza Castilla,Plaza Castilla (Canal),-3.688769444444445,40.46557222222223,FALSE,1,7
8,728,49,2016-06-01T08:00:00Z,NA,NA,NA,NA,9,NA,7,NA,NA,NA,28079050,Plaza Castilla,Plaza Castilla (Canal),-3.688769444444445,40.46557222222223,FALSE,1,8
12,728,41,2016-06-01T09:00:00Z,NA,NA,NA,NA,10,NA,7,NA,NA,NA,28079050,Plaza Castilla,Plaza Castilla (Canal),-3.688769444444445,40.46557222222223,FALSE,1,9
13,728,35,2016-06-01T10:00:00Z,NA,NA,NA,NA,10,NA,9,NA,NA,NA,28079050,Plaza Castilla,Plaza Castilla (Canal),-3.688769444444445,40.46557222222223,FALSE,1,10
11,728,39,2016-06-01T11:00:00Z,NA,NA,NA,NA,13,NA,9,NA,NA,NA,28079050,Plaza Castilla,Plaza Castilla (Canal),-3.688769444444445,40.46557222222223,FALSE,1,11
5,728,60,2016-06-01T12:00:00Z,NA,NA,NA,NA,55,NA,2,NA,NA,NA,28079050,Plaza Castilla,Plaza Castilla (Canal),-3.688769444444445,40.46557222222223,FALSE,1,12
19,728,73,2016-06-01T13:00:00Z,NA,NA,NA,NA,57,NA,10,NA,NA,NA,28079050,Plaza Castilla,Plaza Castilla (Canal),-3.688769444444445,40.46557222222223,FALSE,1,13
26,728,51,2016-06-01T14:00:00Z,NA,NA,NA,NA,33,NA,13,NA,NA,NA,28079050,Plaza Castilla,Plaza Castilla (Canal),-3.688769444444445,40.46557222222223,FALSE,1,14
23,728,57,2016-06-01T15:00:00Z,NA,NA,NA,NA,39,NA,13,NA,NA,NA,28079050,Plaza Castilla,Plaza Castilla (Canal),-3.688769444444445,40.46557222222223,FALSE,1,15
20,728,42,2016-06-01T16:00:00Z,NA,NA,NA,NA,28,NA,14,NA,NA,NA,28079050,Plaza Castilla,Plaza Castilla (Canal),-3.688769444444445,40.46557222222223,FALSE,1,16
14,728,49,2016-06-01T17:00:00Z,NA,NA,NA,NA,32,NA,12,NA,NA,NA,28079050,Plaza Castilla,Plaza Castilla (Canal),-3.688769444444445,40.46557222222223,FALSE,1,17
20,728,40,2016-06-01T18:00:00Z,NA,NA,NA,NA,23,NA,12,NA,NA,NA,28079050,Plaza Castilla,Plaza Castilla (Canal),-3.688769444444445,40.46557222222223,FALSE,1,18
17,728,52,2016-06-01T19:00:00Z,NA,NA,NA,NA,31,NA,8,NA,NA,NA,28079050,Plaza Castilla,Plaza Castilla (Canal),-3.688769444444445,40.46557222222223,FALSE,1,19
15,728,36,2016-06-01T20:00:00Z,NA,NA,NA,NA,16,NA,12,NA,NA,NA,28079050,Plaza Castilla,Plaza Castilla (Canal),-3.688769444444445,40.46557222222223,FALSE,1,20
16,728,36,2016-06-01T21:00:00Z,NA,NA,NA,NA,9,NA,9,NA,NA,NA,28079050,Plaza Castilla,Plaza Castilla (Canal),-3.688769444444445,40.46557222222223,FALSE,1,21
14,728,39,2016-06-01T22:00:00Z,NA,NA,NA,NA,4,NA,7,NA,NA,NA,28079050,Plaza Castilla,Plaza Castilla (Canal),-3.688769444444445,40.46557222222223,FALSE,1,22
11,728,48,2016-06-01T23:00:00Z,NA,NA,NA,NA,6,NA,7,NA,NA,NA,28079050,Plaza Castilla,Plaza Castilla (Canal),-3.688769444444445,40.46557222222223,FALSE,1,23
9,728,44,2016-06-02T00:00:00Z,NA,NA,NA,NA,6,NA,5,NA,NA,NA,28079050,Plaza Castilla,Plaza Castilla (Canal),-3.688769444444445,40.46557222222223,FALSE,2,0
5,728,23,2016-06-02T01:00:00Z,NA,NA,NA,NA,2,NA,1,NA,NA,NA,28079050,Plaza Castilla,Plaza Castilla (Canal),-3.688769444444445,40.46557222222223,FALSE,2,1
1,728,22,2016-06-02T02:00:00Z,NA,NA,NA,NA,2,NA,2,NA,NA,NA,28079050,Plaza Castilla,Plaza Castilla (Canal),-3.688769444444445,40.46557222222223,TRUE,2,2
6,728,11,2016-06-02T03:00:00Z,NA,NA,NA,NA,2,NA,1,NA,NA,NA,28079050,Plaza Castilla,Plaza Castilla (Canal),-3.688769444444445,40.46557222222223,FALSE,2,3
12,618,39,2016-06-01T04:00:00Z,0.20000000298023224,NA,0.10000000149011612,0.11999999731779099,1,NA,NA,NA,1.2200000286102295,0.8999999761581421,28079055,Urb. Embajada,C/ Riaño (Barajas),-3.5807472222222216,40.46253055555556,FALSE,1,4
8,618,27,2016-06-01T05:00:00Z,0.20000000298023224,NA,0.20000000298023224,0.20999999344348907,1,NA,NA,NA,1.2599999904632568,1.600000023841858,28079055,Urb. Embajada,C/ Riaño (Barajas),-3.5807472222222216,40.46253055555556,FALSE,1,5
15,618,56,2016-06-01T06:00:00Z,0.10000000149011612,NA,0.20000000298023224,0.15000000596046448,9,NA,NA,NA,1.2100000381469727,0.800000011920929,28079055,Urb. Embajada,C/ Riaño (Barajas),-3.5807472222222216,40.46253055555556,FALSE,1,6
14,618,64,2016-06-01T07:00:00Z,0.20000000298023224,NA,0.10000000149011612,0.12999999523162842,10,NA,NA,NA,1.2400000095367432,0.699999988079071,28079055,Urb. Embajada,C/ Riaño (Barajas),-3.5807472222222216,40.46253055555556,FALSE,1,7
18,618,74,2016-06-01T08:00:00Z,0.20000000298023224,NA,0.20000000298023224,0.12999999523162842,31,NA,NA,NA,1.2100000381469727,0.4000000059604645,28079055,Urb. Embajada,C/ Riaño (Barajas),-3.5807472222222216,40.46253055555556,FALSE,1,8
25,618,66,2016-06-01T09:00:00Z,0.4000000059604645,NA,0.20000000298023224,0.12999999523162842,37,NA,NA,NA,1.2599999904632568,0.699999988079071,28079055,Urb. Embajada,C/ Riaño (Barajas),-3.5807472222222216,40.46253055555556,FALSE,1,9
17,618,31,2016-06-01T10:00:00Z,NA,NA,NA,0.10000000149011612,10,NA,NA,NA,1.090000033378601,NA,28079055,Urb. Embajada,C/ Riaño (Barajas),-3.5807472222222216,40.46253055555556,FALSE,1,10
16,618,28,2016-06-01T11:00:00Z,NA,NA,NA,0.11999999731779099,8,NA,NA,NA,1.2000000476837158,NA,28079055,Urb. Embajada,C/ Riaño (Barajas),-3.5807472222222216,40.46253055555556,FALSE,1,11
14,618,23,2016-06-01T12:00:00Z,NA,NA,NA,0.11999999731779099,5,NA,NA,NA,1.1699999570846558,NA,28079055,Urb. Embajada,C/ Riaño (Barajas),-3.5807472222222216,40.46253055555556,FALSE,1,12
10,618,24,2016-06-01T13:00:00Z,0.30000001192092896,NA,0.10000000149011612,0.11999999731779099,6,NA,NA,NA,1.1699999570846558,2.700000047683716,28079055,Urb. Embajada,C/ Riaño (Barajas),-3.5807472222222216,40.46253055555556,FALSE,1,13
5,618,15,2016-06-01T14:00:00Z,0.20000000298023224,NA,0.10000000149011612,0.10999999940395355,3,NA,NA,NA,1.149999976158142,1.7000000476837158,28079055,Urb. Embajada,C/ Riaño (Barajas),-3.5807472222222216,40.46253055555556,FALSE,1,14
9,618,32,2016-06-01T15:00:00Z,0.20000000298023224,NA,0.10000000149011612,0.14000000059604645,7,NA,NA,NA,1.1799999475479126,1.7999999523162842,28079055,Urb. Embajada,C/ Riaño (Barajas),-3.5807472222222216,40.46253055555556,FALSE,1,15
16,618,29,2016-06-01T16:00:00Z,0.30000001192092896,NA,0.10000000149011612,0.12999999523162842,6,NA,NA,NA,1.1699999570846558,2.799999952316284,28079055,Urb. Embajada,C/ Riaño (Barajas),-3.5807472222222216,40.46253055555556,FALSE,1,16
12,618,26,2016-06-01T17:00:00Z,0.20000000298023224,NA,0.10000000149011612,0.12999999523162842,5,NA,NA,NA,1.1699999570846558,2.200000047683716,28079055,Urb. Embajada,C/ Riaño (Barajas),-3.5807472222222216,40.46253055555556,FALSE,1,17
13,618,19,2016-06-01T18:00:00Z,0.20000000298023224,NA,0.10000000149011612,0.12999999523162842,3,NA,NA,NA,1.159999966621399,1.399999976158142,28079055,Urb. Embajada,C/ Riaño (Barajas),-3.5807472222222216,40.46253055555556,FALSE,1,18
14,618,20,2016-06-01T19:00:00Z,0.30000001192092896,NA,0.10000000149011612,0.11999999731779099,3,NA,NA,NA,1.159999966621399,1.7999999523162842,28079055,Urb. Embajada,C/ Riaño (Barajas),-3.5807472222222216,40.46253055555556,FALSE,1,19
9,618,26,2016-06-01T20:00:00Z,0.10000000149011612,NA,0.10000000149011612,0.15000000596046448,3,NA,NA,NA,1.1799999475479126,0.6000000238418579,28079055,Urb. Embajada,C/ Riaño (Barajas),-3.5807472222222216,40.46253055555556,FALSE,1,20
6,618,25,2016-06-01T21:00:00Z,0.10000000149011612,NA,0.10000000149011612,0.2199999988079071,2,NA,NA,NA,1.2200000286102295,0.699999988079071,28079055,Urb. Embajada,C/ Riaño (Barajas),-3.5807472222222216,40.46253055555556,FALSE,1,21
12,618,38,2016-06-01T22:00:00Z,0.10000000149011612,NA,0.10000000149011612,0.15000000596046448,2,NA,NA,NA,1.149999976158142,0.6000000238418579,28079055,Urb. Embajada,C/ Riaño (Barajas),-3.5807472222222216,40.46253055555556,FALSE,1,22
21,618,90,2016-06-01T23:00:00Z,0.20000000298023224,NA,0.10000000149011612,0.17000000178813934,8,NA,NA,NA,1.2599999904632568,0.699999988079071,28079055,Urb. Embajada,C/ Riaño (Barajas),-3.5807472222222216,40.46253055555556,FALSE,1,23
18,618,65,2016-06-02T00:00:00Z,0.20000000298023224,NA,0.10000000149011612,0.17000000178813934,4,NA,NA,NA,1.2100000381469727,0.6000000238418579,28079055,Urb. Embajada,C/ Riaño (Barajas),-3.5807472222222216,40.46253055555556,FALSE,2,0
12,618,76,2016-06-02T01:00:00Z,0.20000000298023224,NA,0.20000000298023224,0.14000000059604645,6,NA,NA,NA,1.1699999570846558,0.6000000238418579,28079055,Urb. Embajada,C/ Riaño (Barajas),-3.5807472222222216,40.46253055555556,FALSE,2,1
7,618,50,2016-06-02T02:00:00Z,0.20000000298023224,NA,0.10000000149011612,0.47999998927116394,4,NA,NA,NA,1.5,2.9000000953674316,28079055,Urb. Embajada,C/ Riaño (Barajas),-3.5807472222222216,40.46253055555556,FALSE,2,2
10,618,35,2016-06-02T03:00:00Z,0.20000000298023224,NA,0.10000000149011612,0.30000001192092896,1,NA,NA,NA,1.350000023841858,7.099999904632568,28079055,Urb. Embajada,C/ Riaño (Barajas),-3.5807472222222216,40.46253055555556,FALSE,2,3
8,700,6,2016-06-01T04:00:00Z,NA,0.20000000298023224,NA,NA,1,NA,NA,5,NA,NA,28079057,Sanchinarro,C/ Princesa de Eboli esq C/ Maria Tudor,-3.6605027777777774,40.49420833333333,FALSE,1,4
4,700,5,2016-06-01T05:00:00Z,NA,0.20000000298023224,NA,NA,1,NA,NA,5,NA,NA,28079057,Sanchinarro,C/ Princesa de Eboli esq C/ Maria Tudor,-3.6605027777777774,40.49420833333333,TRUE,1,5
6,700,10,2016-06-01T06:00:00Z,NA,0.20000000298023224,NA,NA,1,NA,NA,6,NA,NA,28079057,Sanchinarro,C/ Princesa de Eboli esq C/ Maria Tudor,-3.6605027777777774,40.49420833333333,FALSE,1,6
11,700,21,2016-06-01T07:00:00Z,NA,0.20000000298023224,NA,NA,1,NA,NA,6,NA,NA,28079057,Sanchinarro,C/ Princesa de Eboli esq C/ Maria Tudor,-3.6605027777777774,40.49420833333333,FALSE,1,7
14,700,34,2016-06-01T08:00:00Z,NA,0.4000000059604645,NA,NA,2,NA,NA,7,NA,NA,28079057,Sanchinarro,C/ Princesa de Eboli esq C/ Maria Tudor,-3.6605027777777774,40.49420833333333,FALSE,1,8
20,700,44,2016-06-01T09:00:00Z,NA,0.30000001192092896,NA,NA,2,NA,NA,6,NA,NA,28079057,Sanchinarro,C/ Princesa de Eboli esq C/ Maria Tudor,-3.6605027777777774,40.49420833333333,FALSE,1,9
18,700,45,2016-06-01T10:00:00Z,NA,0.30000001192092896,NA,NA,4,NA,NA,6,NA,NA,28079057,Sanchinarro,C/ Princesa de Eboli esq C/ Maria Tudor,-3.6605027777777774,40.49420833333333,FALSE,1,10
16,700,48,2016-06-01T11:00:00Z,NA,0.30000001192092896,NA,NA,3,NA,NA,6,NA,NA,28079057,Sanchinarro,C/ Princesa de Eboli esq C/ Maria Tudor,-3.6605027777777774,40.49420833333333,FALSE,1,11
13,700,40,2016-06-01T12:00:00Z,NA,0.30000001192092896,NA,NA,3,NA,NA,5,NA,NA,28079057,Sanchinarro,C/ Princesa de Eboli esq C/ Maria Tudor,-3.6605027777777774,40.49420833333333,FALSE,1,12
12,700,40,2016-06-01T13:00:00Z,NA,0.30000001192092896,NA,NA,4,NA,NA,4,NA,NA,28079057,Sanchinarro,C/ Princesa de Eboli esq C/ Maria Tudor,-3.6605027777777774,40.49420833333333,FALSE,1,13
17,700,49,2016-06-01T14:00:00Z,NA,0.4000000059604645,NA,NA,5,NA,NA,3,NA,NA,28079057,Sanchinarro,C/ Princesa de Eboli esq C/ Maria Tudor,-3.6605027777777774,40.49420833333333,FALSE,1,14
7,700,32,2016-06-01T15:00:00Z,NA,0.30000001192092896,NA,NA,3,NA,NA,2,NA,NA,28079057,Sanchinarro,C/ Princesa de Eboli esq C/ Maria Tudor,-3.6605027777777774,40.49420833333333,FALSE,1,15
14,700,28,2016-06-01T16:00:00Z,NA,0.30000001192092896,NA,NA,2,NA,NA,2,NA,NA,28079057,Sanchinarro,C/ Princesa de Eboli esq C/ Maria Tudor,-3.6605027777777774,40.49420833333333,FALSE,1,16
14,700,28,2016-06-01T17:00:00Z,NA,0.30000001192092896,NA,NA,2,NA,NA,2,NA,NA,28079057,Sanchinarro,C/ Princesa de Eboli esq C/ Maria Tudor,-3.6605027777777774,40.49420833333333,FALSE,1,17
9,700,30,2016-06-01T18:00:00Z,NA,0.30000001192092896,NA,NA,2,NA,NA,2,NA,NA,28079057,Sanchinarro,C/ Princesa de Eboli esq C/ Maria Tudor,-3.6605027777777774,40.49420833333333,FALSE,1,18
9,700,26,2016-06-01T19:00:00Z,NA,0.30000001192092896,NA,NA,2,NA,NA,2,NA,NA,28079057,Sanchinarro,C/ Princesa de Eboli esq C/ Maria Tudor,-3.6605027777777774,40.49420833333333,FALSE,1,19
7,700,24,2016-06-01T20:00:00Z,NA,0.30000001192092896,NA,NA,3,NA,NA,2,NA,NA,28079057,Sanchinarro,C/ Princesa de Eboli esq C/ Maria Tudor,-3.6605027777777774,40.49420833333333,FALSE,1,20
10,700,20,2016-06-01T21:00:00Z,NA,0.20000000298023224,NA,NA,2,NA,NA,2,NA,NA,28079057,Sanchinarro,C/ Princesa de Eboli esq C/ Maria Tudor,-3.6605027777777774,40.49420833333333,FALSE,1,21
6,700,18,2016-06-01T22:00:00Z,NA,0.20000000298023224,NA,NA,1,NA,NA,3,NA,NA,28079057,Sanchinarro,C/ Princesa de Eboli esq C/ Maria Tudor,-3.6605027777777774,40.49420833333333,FALSE,1,22
10,700,28,2016-06-01T23:00:00Z,NA,0.30000001192092896,NA,NA,1,NA,NA,4,NA,NA,28079057,Sanchinarro,C/ Princesa de Eboli esq C/ Maria Tudor,-3.6605027777777774,40.49420833333333,FALSE,1,23
15,700,23,2016-06-02T00:00:00Z,NA,0.30000001192092896,NA,NA,1,NA,NA,4,NA,NA,28079057,Sanchinarro,C/ Princesa de Eboli esq C/ Maria Tudor,-3.6605027777777774,40.49420833333333,FALSE,2,0
11,700,18,2016-06-02T01:00:00Z,NA,0.30000001192092896,NA,NA,1,NA,NA,4,NA,NA,28079057,Sanchinarro,C/ Princesa de Eboli esq C/ Maria Tudor,-3.6605027777777774,40.49420833333333,FALSE,2,1
7,700,14,2016-06-02T02:00:00Z,NA,0.20000000298023224,NA,NA,1,NA,NA,6,NA,NA,28079057,Sanchinarro,C/ Princesa de Eboli esq C/ Maria Tudor,-3.6605027777777774,40.49420833333333,FALSE,2,2
3,700,11,2016-06-02T03:00:00Z,NA,0.20000000298023224,NA,NA,1,NA,NA,6,NA,NA,28079057,Sanchinarro,C/ Princesa de Eboli esq C/ Maria Tudor,-3.6605027777777774,40.49420833333333,TRUE,2,3
14,715,14,2016-06-01T04:00:00Z,NA,NA,NA,NA,1,83,NA,NA,NA,NA,28079060,Tres Olivos,Plaza Tres Olivos,-3.6897611111111113,40.50058888888889,FALSE,1,4
4,715,9,2016-06-01T05:00:00Z,NA,NA,NA,NA,1,89,NA,NA,NA,NA,28079060,Tres Olivos,Plaza Tres Olivos,-3.6897611111111113,40.50058888888889,TRUE,1,5
8,715,11,2016-06-01T06:00:00Z,NA,NA,NA,NA,1,82,NA,NA,NA,NA,28079060,Tres Olivos,Plaza Tres Olivos,-3.6897611111111113,40.50058888888889,FALSE,1,6
10,715,15,2016-06-01T07:00:00Z,NA,NA,NA,NA,1,79,NA,NA,NA,NA,28079060,Tres Olivos,Plaza Tres Olivos,-3.6897611111111113,40.50058888888889,FALSE,1,7
17,715,59,2016-06-01T08:00:00Z,NA,NA,NA,NA,11,44,NA,NA,NA,NA,28079060,Tres Olivos,Plaza Tres Olivos,-3.6897611111111113,40.50058888888889,FALSE,1,8
28,715,63,2016-06-01T09:00:00Z,NA,NA,NA,NA,17,46,NA,NA,NA,NA,28079060,Tres Olivos,Plaza Tres Olivos,-3.6897611111111113,40.50058888888889,FALSE,1,9
16,715,38,2016-06-01T10:00:00Z,NA,NA,NA,NA,6,71,NA,NA,NA,NA,28079060,Tres Olivos,Plaza Tres Olivos,-3.6897611111111113,40.50058888888889,FALSE,1,10
16,715,40,2016-06-01T11:00:00Z,NA,NA,NA,NA,8,72,NA,NA,NA,NA,28079060,Tres Olivos,Plaza Tres Olivos,-3.6897611111111113,40.50058888888889,FALSE,1,11
16,715,42,2016-06-01T12:00:00Z,NA,NA,NA,NA,8,75,NA,NA,NA,NA,28079060,Tres Olivos,Plaza Tres Olivos,-3.6897611111111113,40.50058888888889,FALSE,1,12
27,715,48,2016-06-01T13:00:00Z,NA,NA,NA,NA,8,73,NA,NA,NA,NA,28079060,Tres Olivos,Plaza Tres Olivos,-3.6897611111111113,40.50058888888889,FALSE,1,13
7,715,36,2016-06-01T14:00:00Z,NA,NA,NA,NA,5,89,NA,NA,NA,NA,28079060,Tres Olivos,Plaza Tres Olivos,-3.6897611111111113,40.50058888888889,FALSE,1,14
14,715,27,2016-06-01T15:00:00Z,NA,NA,NA,NA,3,100,NA,NA,NA,NA,28079060,Tres Olivos,Plaza Tres Olivos,-3.6897611111111113,40.50058888888889,FALSE,1,15
14,715,26,2016-06-01T16:00:00Z,NA,NA,NA,NA,2,109,NA,NA,NA,NA,28079060,Tres Olivos,Plaza Tres Olivos,-3.6897611111111113,40.50058888888889,FALSE,1,16
12,715,19,2016-06-01T17:00:00Z,NA,NA,NA,NA,2,126,NA,NA,NA,NA,28079060,Tres Olivos,Plaza Tres Olivos,-3.6897611111111113,40.50058888888889,FALSE,1,17
7,715,11,2016-06-01T18:00:00Z,NA,NA,NA,NA,1,139,NA,NA,NA,NA,28079060,Tres Olivos,Plaza Tres Olivos,-3.6897611111111113,40.50058888888889,FALSE,1,18
5,715,17,2016-06-01T19:00:00Z,NA,NA,NA,NA,5,127,NA,NA,NA,NA,28079060,Tres Olivos,Plaza Tres Olivos,-3.6897611111111113,40.50058888888889,FALSE,1,19
5,715,17,2016-06-01T20:00:00Z,NA,NA,NA,NA,1,117,NA,NA,NA,NA,28079060,Tres Olivos,Plaza Tres Olivos,-3.6897611111111113,40.50058888888889,FALSE,1,20
11,715,18,2016-06-01T21:00:00Z,NA,NA,NA,NA,1,110,NA,NA,NA,NA,28079060,Tres Olivos,Plaza Tres Olivos,-3.6897611111111113,40.50058888888889,FALSE,1,21
7,715,21,2016-06-01T22:00:00Z,NA,NA,NA,NA,1,106,NA,NA,NA,NA,28079060,Tres Olivos,Plaza Tres Olivos,-3.6897611111111113,40.50058888888889,FALSE,1,22
12,715,19,2016-06-01T23:00:00Z,NA,NA,NA,NA,1,106,NA,NA,NA,NA,28079060,Tres Olivos,Plaza Tres Olivos,-3.6897611111111113,40.50058888888889,FALSE,1,23
12,715,12,2016-06-02T00:00:00Z,NA,NA,NA,NA,1,111,NA,NA,NA,NA,28079060,Tres Olivos,Plaza Tres Olivos,-3.6897611111111113,40.50058888888889,FALSE,2,0
12,715,23,2016-06-02T01:00:00Z,NA,NA,NA,NA,1,91,NA,NA,NA,NA,28079060,Tres Olivos,Plaza Tres Olivos,-3.6897611111111113,40.50058888888889,FALSE,2,1
6,715,14,2016-06-02T02:00:00Z,NA,NA,NA,NA,1,98,NA,NA,NA,NA,28079060,Tres Olivos,Plaza Tres Olivos,-3.6897611111111113,40.50058888888889,FALSE,2,2
4,715,16,2016-06-02T03:00:00Z,NA,NA,NA,NA,1,94,NA,NA,NA,NA,28079060,Tres Olivos,Plaza Tres Olivos,-3.6897611111111113,40.50058888888889,TRUE,2,3
